\relax 
\providecommand\hyper@newdestlabel[2]{}
\providecommand\HyperFirstAtBeginDocument{\AtBeginDocument}
\HyperFirstAtBeginDocument{\ifx\hyper@anchor\@undefined
\global\let\oldcontentsline\contentsline
\gdef\contentsline#1#2#3#4{\oldcontentsline{#1}{#2}{#3}}
\global\let\oldnewlabel\newlabel
\gdef\newlabel#1#2{\newlabelxx{#1}#2}
\gdef\newlabelxx#1#2#3#4#5#6{\oldnewlabel{#1}{{#2}{#3}}}
\AtEndDocument{\ifx\hyper@anchor\@undefined
\let\contentsline\oldcontentsline
\let\newlabel\oldnewlabel
\fi}
\fi}
\global\let\hyper@last\relax 
\gdef\HyperFirstAtBeginDocument#1{#1}
\providecommand\HyField@AuxAddToFields[1]{}
\providecommand\HyField@AuxAddToCoFields[2]{}
\@writefile{toc}{\contentsline {section}{\numberline {1}Gruppeninformationen}{1}{section.1}}
\@writefile{toc}{\contentsline {section}{\numberline {2}Vorgehensmodelle -- Extreme Programming}{1}{section.2}}
\@writefile{toc}{\contentsline {section}{\numberline {3}Vorgehensmodelle -- Manager}{1}{section.3}}
\@writefile{toc}{\contentsline {section}{\numberline {4}Use Case Diagramm -- Getr\IeC {\"a}nkeautomat}{2}{section.4}}
\@writefile{toc}{\contentsline {section}{\numberline {5}Use Case Diagramm -- Webshop}{3}{section.5}}
