\BOOKMARK [1][-]{section.1}{Gruppeninformationen}{}% 1
\BOOKMARK [1][-]{section.2}{Vorgehensmodelle \205 Extreme Programming}{}% 2
\BOOKMARK [1][-]{section.3}{Vorgehensmodelle \205 Manager}{}% 3
\BOOKMARK [1][-]{section.4}{Use Case Diagramm \205 Getr\344nkeautomat}{}% 4
\BOOKMARK [1][-]{section.5}{Use Case Diagramm \205 Webshop}{}% 5
